Package                       Version
----------------------------- -----------
affine                        2.3.0
alabaster                     0.7.10
altair                        2.4.1
attrs                         19.3.0
Babel                         2.6.0
backcall                      0.1.0
backports.functools-lru-cache 1.5
beautifulsoup4                4.7.1
bleach                        3.1.0
branca                        0.3.1
brewer2mpl                    1.4.1
certifi                       2017.11.5
cftime                        1.1.3
chardet                       3.0.4
cheroot                       6.5.2
CherryPy                      18.0.1
click                         7.1.2
click-plugins                 1.1.1
cligj                         0.5.0
colorama                      0.3.9
comtypes                      1.1.7
cycler                        0.10.0
dash                          0.19.0
dash-core-components          0.13.0
dash-html-components          0.8.0
dash-renderer                 0.11.0
decorator                     4.1.2
defusedxml                    0.5.0
docutils                      0.14
DUCKS                         0.0.2
entrypoints                   0.3
et-xmlfile                    1.0.1
Fiona                         1.8.13
Flask                         0.12.2
Flask-Compress                1.4.0
GDAL                          3.0.4
geos                          0.2.2
ggplot                        0.11.5
googlemaps                    2.5.1
h5py                          2.10.0
holoviews                     1.12.3
idna                          2.6
imagesize                     1.0.0
importlib-metadata            1.6.1
ipykernel                     5.3.0
ipyleaflet                    0.13.0
ipython                       7.15.0
ipython-genutils              0.2.0
ipywidgets                    7.5.1
itsdangerous                  0.24
jaraco.functools              1.20
jdcal                         1.4
jedi                          0.13.3
Jinja2                        2.11.2
json5                         0.9.5
jsonschema                    3.2.0
jupyter                       1.0.0
jupyter-client                6.1.3
jupyter-console               6.1.0
jupyter-core                  4.6.3
jupyterlab                    2.1.4
jupyterlab-server             1.1.5
kiwisolver                    1.0.1
lxml                          4.4.2
MarkupSafe                    1.0
matplotlib                    3.0.2
mistune                       0.8.4
more-itertools                4.3.0
mpld3                         0.3
munch                         2.5.0
nbconvert                     5.4.1
nbformat                      4.4.0
netCDF4                       1.5.3
notebook                      5.7.4
numpy                         1.16.1
openpyxl                      2.6.1
packaging                     17.1
pandas                        0.25.0
pandocfilters                 1.4.2
param                         1.9.1
parso                         0.3.4
patsy                         0.5.1
pb-tool                       3.0.6
pickleshare                   0.7.5
Pillow                        7.0.0
pip                           20.1.1
pip-tools                     5.2.1
plotly                        2.1.0
portend                       2.3
prometheus-client             0.6.0
prompt-toolkit                2.0.9
psycopg2                      2.7.3.2
Pygments                      2.2.0
pyodbc                        4.0.30
pyopenms                      2.4.0
pyparsing                     2.2.0
PyQt5                         5.11.2
PyQt5-sip                     4.19.12
pyrsistent                    0.16.0
pyshp                         2.1.0
python-dateutil               2.7.3
pytz                          2018.5
pyviz-comms                   0.7.2
pywin32                       224
pywinpty                      0.5.5
pyzmq                         18.0.0
qtconsole                     4.4.3
rasterio                      1.1.3
requests                      2.18.4
scikit-learn                  0.20.1
scipy                         1.1.0
seaborn                       0.9.0
Send2Trash                    1.5.0
setuptools                    40.8.0
Shapely                       1.6.4.post2
six                           1.11.0
sklearn                       0.0
snowballstemmer               1.2.1
snuggs                        1.4.7
soupsieve                     1.9.1
Sphinx                        1.7.5
sphinxcontrib-websupport      1.1.0
SQLAlchemy                    1.2.17
statsmodels                   0.9.0
tempora                       1.13
terminado                     0.8.1
testpath                      0.4.2
toolz                         0.9.0
tornado                       5.1.1
traitlets                     4.3.2
traittypes                    0.2.1
urllib3                       1.22
wcwidth                       0.1.7
webencodings                  0.5.1
Werkzeug                      0.12.2
wheel                         0.33.1
widgetsnbextension            3.5.1
xlrd                          1.2.0
xlwings                       0.15.2
zc.lockfile                   1.3.0
zipp                          3.1.0
